<?xml version="1.0" encoding="UTF-8" standalone="no" ?>
<gpx xmlns="http://www.topografix.com/GPX/1/1" xmlns:gpxx="http://www.garmin.com/xmlschemas/GpxExtensions/v3" xmlns:gpxtpx="http://www.garmin.com/xmlschemas/TrackPointExtension/v1" creator="mapstogpx.com" version="1.1" xmlns:xsi="http://www.w3.org/2001/XMLSchema-instance" xsi:schemaLocation="http://www.topografix.com/GPX/1/1 http://www.topografix.com/GPX/1/1/gpx.xsd http://www.garmin.com/xmlschemas/GpxExtensions/v3 http://www.garmin.com/xmlschemas/GpxExtensionsv3.xsd http://www.garmin.com/xmlschemas/TrackPointExtension/v1 http://www.garmin.com/xmlschemas/TrackPointExtensionv1.xsd">
  <metadata>
    <link href="http://www.mapstogpx.com">
      <text>Sverrir Sigmundarson</text>
    </link>
    <!--desc>Map data ©2018 Google</desc-->
    <!--copyright author="Google Inc">
    	<year>2018</year>
    	<license>https://developers.google.com/maps/terms</license>
    </copyright-->
    <!--url>https://www.google.com/maps/dir/-16.4111302,-71.5216198/Urbano+Santa+Maria+de+Lambramani,+Arequipa/@-16.4127198,-71.5219258,18z/data=!3m1!4b1!4m9!4m8!1m0!1m5!1m1!1s0x91424b1cd16aea9d:0xdcb093a4fcfbd1f4!2m2!1d-71.5208479!2d-16.4143272!3e2?shorturl=1&hl=en</url-->
    <time>2018-11-09T16:36:07Z</time>
  </metadata>
  <wpt lat="-16.4111302" lon="-71.5216198">
    <name>Arequipa</name>
    <desc>Av. Lambramani, Arequipa, Peru</desc>
  </wpt>
  <wpt lat="-16.4143272" lon="-71.5208479">
    <name>Urbano Santa Maria de Lambramani</name>
    <desc>Urbano Santa Maria de Lambramani, Arequipa, Peru</desc>
  </wpt>
<trk>
  <name>Arequipa to Urbano Santa Maria de Lambramani</name>
  <number>1</number>
  <trkseg>
  <trkpt lat="-16.4111175" lon="-71.5216314">
    <name>TP001</name>
  </trkpt>
  <trkpt lat="-16.41115" lon="-71.52166">
    <name>TP002</name>
  </trkpt>
  <trkpt lat="-16.41121" lon="-71.52173">
    <name>TP003</name>
  </trkpt>
  <trkpt lat="-16.4112082" lon="-71.5217304">
    <name>TP004</name>
  </trkpt>
  <trkpt lat="-16.41127" lon="-71.52166">
    <name>TP005</name>
  </trkpt>
  <trkpt lat="-16.41134" lon="-71.5216">
    <name>TP006</name>
  </trkpt>
  <trkpt lat="-16.41137" lon="-71.52156">
    <name>TP007</name>
  </trkpt>
  <trkpt lat="-16.41139" lon="-71.52157">
    <name>TP008</name>
  </trkpt>
  <trkpt lat="-16.4114" lon="-71.52157">
    <name>TP009</name>
  </trkpt>
  <trkpt lat="-16.41141" lon="-71.52157">
    <name>TP010</name>
  </trkpt>
  <trkpt lat="-16.41142" lon="-71.52157">
    <name>TP011</name>
  </trkpt>
  <trkpt lat="-16.41142" lon="-71.52158">
    <name>TP012</name>
  </trkpt>
  <trkpt lat="-16.41143" lon="-71.52157">
    <name>TP013</name>
  </trkpt>
  <trkpt lat="-16.41144" lon="-71.52157">
    <name>TP014</name>
  </trkpt>
  <trkpt lat="-16.41145" lon="-71.52157">
    <name>TP015</name>
  </trkpt>
  <trkpt lat="-16.41146" lon="-71.52157">
    <name>TP016</name>
  </trkpt>
  <trkpt lat="-16.41147" lon="-71.52157">
    <name>TP017</name>
  </trkpt>
  <trkpt lat="-16.41148" lon="-71.52156">
    <name>TP018</name>
  </trkpt>
  <trkpt lat="-16.41149" lon="-71.52156">
    <name>TP019</name>
  </trkpt>
  <trkpt lat="-16.41151" lon="-71.52155">
    <name>TP020</name>
  </trkpt>
  <trkpt lat="-16.41153" lon="-71.52153">
    <name>TP021</name>
  </trkpt>
  <trkpt lat="-16.41154" lon="-71.52153">
    <name>TP022</name>
  </trkpt>
  <trkpt lat="-16.41154" lon="-71.52152">
    <name>TP023</name>
  </trkpt>
  <trkpt lat="-16.41155" lon="-71.52152">
    <name>TP024</name>
  </trkpt>
  <trkpt lat="-16.41155" lon="-71.52151">
    <name>TP025</name>
  </trkpt>
  <trkpt lat="-16.41156" lon="-71.52151">
    <name>TP026</name>
  </trkpt>
  <trkpt lat="-16.41156" lon="-71.5215">
    <name>TP027</name>
  </trkpt>
  <trkpt lat="-16.41156" lon="-71.52149">
    <name>TP028</name>
  </trkpt>
  <trkpt lat="-16.41157" lon="-71.52149">
    <name>TP029</name>
  </trkpt>
  <trkpt lat="-16.41157" lon="-71.52148">
    <name>TP030</name>
  </trkpt>
  <trkpt lat="-16.41158" lon="-71.52145">
    <name>TP031</name>
  </trkpt>
  <trkpt lat="-16.41164" lon="-71.52138">
    <name>TP032</name>
  </trkpt>
  <trkpt lat="-16.41167" lon="-71.52133">
    <name>TP033</name>
  </trkpt>
  <trkpt lat="-16.41168" lon="-71.52132">
    <name>TP034</name>
  </trkpt>
  <trkpt lat="-16.41169" lon="-71.52132">
    <name>TP035</name>
  </trkpt>
  <trkpt lat="-16.41169" lon="-71.52131">
    <name>TP036</name>
  </trkpt>
  <trkpt lat="-16.4117" lon="-71.5213">
    <name>TP037</name>
  </trkpt>
  <trkpt lat="-16.41171" lon="-71.52128">
    <name>TP038</name>
  </trkpt>
  <trkpt lat="-16.41172" lon="-71.52128">
    <name>TP039</name>
  </trkpt>
  <trkpt lat="-16.41172" lon="-71.52127">
    <name>TP040</name>
  </trkpt>
  <trkpt lat="-16.41173" lon="-71.52126">
    <name>TP041</name>
  </trkpt>
  <trkpt lat="-16.41173" lon="-71.52124">
    <name>TP042</name>
  </trkpt>
  <trkpt lat="-16.41184" lon="-71.52112">
    <name>TP043</name>
  </trkpt>
  <trkpt lat="-16.41188" lon="-71.52108">
    <name>TP044</name>
  </trkpt>
  <trkpt lat="-16.41191" lon="-71.52106">
    <name>TP045</name>
  </trkpt>
  <trkpt lat="-16.41194" lon="-71.52104">
    <name>TP046</name>
  </trkpt>
  <trkpt lat="-16.41199" lon="-71.52101">
    <name>TP047</name>
  </trkpt>
  <trkpt lat="-16.41209" lon="-71.52097">
    <name>TP048</name>
  </trkpt>
  <trkpt lat="-16.41215" lon="-71.52093">
    <name>TP049</name>
  </trkpt>
  <trkpt lat="-16.41217" lon="-71.52092">
    <name>TP050</name>
  </trkpt>
  <trkpt lat="-16.41219" lon="-71.52091">
    <name>TP051</name>
  </trkpt>
  <trkpt lat="-16.4122" lon="-71.52089">
    <name>TP052</name>
  </trkpt>
  <trkpt lat="-16.41221" lon="-71.52088">
    <name>TP053</name>
  </trkpt>
  <trkpt lat="-16.41222" lon="-71.52087">
    <name>TP054</name>
  </trkpt>
  <trkpt lat="-16.41222" lon="-71.52086">
    <name>TP055</name>
  </trkpt>
  <trkpt lat="-16.41225" lon="-71.52079">
    <name>TP056</name>
  </trkpt>
  <trkpt lat="-16.41229" lon="-71.52075">
    <name>TP057</name>
  </trkpt>
  <trkpt lat="-16.41237" lon="-71.5207">
    <name>TP058</name>
  </trkpt>
  <trkpt lat="-16.41263" lon="-71.52054">
    <name>TP059</name>
  </trkpt>
  <trkpt lat="-16.41267" lon="-71.52052">
    <name>TP060</name>
  </trkpt>
  <trkpt lat="-16.41337" lon="-71.52015">
    <name>TP061</name>
  </trkpt>
  <trkpt lat="-16.41344" lon="-71.52011">
    <name>TP062</name>
  </trkpt>
  <trkpt lat="-16.41351" lon="-71.52007">
    <name>TP063</name>
  </trkpt>
  <trkpt lat="-16.4138" lon="-71.51993">
    <name>TP064</name>
  </trkpt>
  <trkpt lat="-16.4138032" lon="-71.5199271">
    <name>TP065</name>
  </trkpt>
  <trkpt lat="-16.41385" lon="-71.52001">
    <name>TP066</name>
  </trkpt>
  <trkpt lat="-16.4139" lon="-71.5201">
    <name>TP067</name>
  </trkpt>
  <trkpt lat="-16.41395" lon="-71.52021">
    <name>TP068</name>
  </trkpt>
  <trkpt lat="-16.4141" lon="-71.52048">
    <name>TP069</name>
  </trkpt>
  <trkpt lat="-16.41424" lon="-71.52072">
    <name>TP070</name>
  </trkpt>
  <trkpt lat="-16.41433" lon="-71.52085">
    <name>TP071</name>
  </trkpt>
  <trkpt lat="-16.4143272" lon="-71.5208479">
    <name>TP072</name>
  </trkpt>
  </trkseg>
</trk>
</gpx>